…
This is telling you that `read_csv` found three columns; `Sex`, which 
is treated as a columns of strings (characters), and 
`BodyWeight` and `HeartWeight`, which are both treated as columns
of floating point numbers (doubles).

Next, if you type `cats` and press return...

```r
cats
# A tibble: 144 x 3
   Sex   BodyWeight HeartWeight
   <chr>      <dbl>       <dbl>
 1 F            2           7  
 2 F            2           7.4
 3 F            2           9.5
 4 F            2.1         7.2
 5 F            2.1         7.3
 6 F            2.1         7.6
 7 F            2.1         8.1
 8 F            2.1         8.2
 9 F            2.1         8.3
10 F            2.1         8.5
# … with 134 more rows
```
…
